…
Now we can compute the frequency of all of unique combinations of these columns in the raw data:

``` r
infractions <- tickets_staging %>%
    select(code = infraction_code, desc = infraction_description,
           fine = set_fine_amount) %>%
    group_by(code, desc, fine) %>%
    summarise(freq = n()) %>%
    ungroup() %>%
    collect()

infractions
```

    ## # A tibble: 767 × 4
    ##     code                           desc  fine   freq
    ##    <int>                          <chr> <int>  <int>
    ## 1      1          PARK AT EXPIRED METER    30  18279
    ## 2      1  PARK FAIL TO DEP FEE IN METER     0      1
    ## 3      1  PARK FAIL TO DEP FEE IN METER    30   2890
    ## 4      1 PARK FAIL TO DEPOSIT FEE METER    30  27335
    ## 5      1 PARK-FAIL TO DEPOSIT FEE METER    30   5345
    ## 6      2     PARK - LONGER THAN 3 HOURS     0     39
    ## 7      2     PARK - LONGER THAN 3 HOURS    15 214482
    ## 8      2       PARK LONGER THAN 3 HOURS    15 488896
    ## 9      2              PARK OVER 3 HOURS    15 185159
    ## 10     2       PARK-LONGER THAN 3 HOURS    15  40534
    ## # ... with 757 more rows
…
``` r
well.defined <- infractions %>%
    # Pull out all of the codes that only have one "definition".
    group_by(code) %>%
    summarise(freq = n()) %>%
    ungroup() %>%
    filter(freq == 1) %>%
    select(code) %>%
    # Semi join on these well-defined infractions.
    semi_join(infractions, ., by = "code")

well.defined
```

    ## # A tibble: 113 × 4
    ##     code                           desc  fine  freq
    ##    <int>                          <chr> <int> <int>
    ## 1     43 PARALLEL PARK-METERED SPACE-FR    30     4
    ## 2     45 ANGLE PARK-METERED SPACE-FRONT    30    36
    ## 3     66     STOP-ON ELEVATED STRUCTURE    60     6
    ## 4     76      STOP VEH VEND OVER 10 MIN    60     1
    ## 5     87     PARK MOTORCYCLE - AT ANGLE    30     4
    ## 6     89     PARK MOTORCYCLE - IN SPACE    30     2
    ## 7    106  PARK ON SIDE PROH DAY TO SIGN    30     2
    ## 8    115    PARK METERED SPACE PARK LOT    15     3
    ## 9    122 PARK METERED ZONE NOT CLOSE AS    30     1
    ## 10   129    STOP PROH TIME MAITLAND ST.    60     1
    ## # ... with 103 more rows
…
