…
The first ten rows contain a large number of "ON" entries, which is exactly what you'd expect in Toronto, Ontario. To get a more exact picture of these entries, we can count the number of occurences of each code (note that this query may take a little while).

``` r
prov.counts <- tickets_staging %>%
    group_by(province) %>%
    summarise(count = n()) %>%
    ungroup() %>%
    arrange(desc(count)) %>%
    collect()

prov.counts
```

    ## # A tibble: 74 × 2
    ##    province    count
    ##       <chr>    <int>
    ## 1        ON 19755734
    ## 2        QC   259335
    ## 3        AB    93616
    ## 4        NY    79045
    ## 5        BC    50804
    ## 6        NS    41683
    ## 7        MI    38292
    ## 8        FL    38024
    ## 9        AZ    27698
    ## 10       MB    26286
    ## # ... with 64 more rows
…
    ## Parsed with column specification:
    ## cols(
    ##   code = col_character(),
    ##   place = col_character(),
    ##   country = col_character()
    ## )

``` r
semi_join(prov.counts, iso3166, by = c("province" = "code")) %>%
    arrange(desc(count))
```

    ## # A tibble: 67 × 2
    ##    province    count
    ##       <chr>    <int>
    ## 1        ON 19755734
    ## 2        QC   259335
    ## 3        AB    93616
    ## 4        NY    79045
    ## 5        BC    50804
    ## 6        NS    41683
    ## 7        MI    38292
    ## 8        FL    38024
    ## 9        AZ    27698
    ## 10       MB    26286
    ## # ... with 57 more rows
…
